Hello from rank 70, on nid02518. (core affinity = 2,70,138,206)
Hello from rank 73, on nid02518. (core affinity = 5,73,141,209)
Hello from rank 74, on nid02518. (core affinity = 6,74,142,210)
Hello from rank 83, on nid02518. (core affinity = 15,83,151,219)
Hello from rank 89, on nid02518. (core affinity = 21,89,157,225)
Hello from rank 90, on nid02518. (core affinity = 22,90,158,226)
Hello from rank 94, on nid02518. (core affinity = 26,94,162,230)
Hello from rank 97, on nid02518. (core affinity = 29,97,165,233)
Hello from rank 99, on nid02518. (core affinity = 31,99,167,235)
Hello from rank 102, on nid02518. (core affinity = 34,102,170,238)
Hello from rank 110, on nid02518. (core affinity = 42,110,178,246)
Hello from rank 114, on nid02518. (core affinity = 46,114,182,250)
Hello from rank 119, on nid02518. (core affinity = 51,119,187,255)
Hello from rank 121, on nid02518. (core affinity = 53,121,189,257)
Hello from rank 123, on nid02518. (core affinity = 55,123,191,259)
Hello from rank 124, on nid02518. (core affinity = 56,124,192,260)
Hello from rank 125, on nid02518. (core affinity = 57,125,193,261)
Hello from rank 127, on nid02518. (core affinity = 59,127,195,263)
Hello from rank 130, on nid02518. (core affinity = 62,130,198,266)
Hello from rank 132, on nid02518. (core affinity = 64,132,200,268)
Hello from rank 68, on nid02518. (core affinity = 0,68,136,204)
Hello from rank 69, on nid02518. (core affinity = 1,69,137,205)
Hello from rank 71, on nid02518. (core affinity = 3,71,139,207)
Hello from rank 72, on nid02518. (core affinity = 4,72,140,208)
Hello from rank 75, on nid02518. (core affinity = 7,75,143,211)
Hello from rank 76, on nid02518. (core affinity = 8,76,144,212)
Hello from rank 77, on nid02518. (core affinity = 9,77,145,213)
Hello from rank 78, on nid02518. (core affinity = 10,78,146,214)
Hello from rank 79, on nid02518. (core affinity = 11,79,147,215)
Hello from rank 80, on nid02518. (core affinity = 12,80,148,216)
Hello from rank 81, on nid02518. (core affinity = 13,81,149,217)
Hello from rank 82, on nid02518. (core affinity = 14,82,150,218)
Hello from rank 84, on nid02518. (core affinity = 16,84,152,220)
Hello from rank 85, on nid02518. (core affinity = 17,85,153,221)
Hello from rank 86, on nid02518. (core affinity = 18,86,154,222)
Hello from rank 87, on nid02518. (core affinity = 19,87,155,223)
Hello from rank 88, on nid02518. (core affinity = 20,88,156,224)
Hello from rank 91, on nid02518. (core affinity = 23,91,159,227)
Hello from rank 92, on nid02518. (core affinity = 24,92,160,228)
Hello from rank 93, on nid02518. (core affinity = 25,93,161,229)
Hello from rank 95, on nid02518. (core affinity = 27,95,163,231)
Hello from rank 96, on nid02518. (core affinity = 28,96,164,232)
Hello from rank 98, on nid02518. (core affinity = 30,98,166,234)
Hello from rank 100, on nid02518. (core affinity = 32,100,168,236)
Hello from rank 101, on nid02518. (core affinity = 33,101,169,237)
Hello from rank 103, on nid02518. (core affinity = 35,103,171,239)
Hello from rank 104, on nid02518. (core affinity = 36,104,172,240)
Hello from rank 105, on nid02518. (core affinity = 37,105,173,241)
Hello from rank 106, on nid02518. (core affinity = 38,106,174,242)
Hello from rank 107, on nid02518. (core affinity = 39,107,175,243)
Hello from rank 108, on nid02518. (core affinity = 40,108,176,244)
Hello from rank 109, on nid02518. (core affinity = 41,109,177,245)
Hello from rank 111, on nid02518. (core affinity = 43,111,179,247)
Hello from rank 112, on nid02518. (core affinity = 44,112,180,248)
Hello from rank 113, on nid02518. (core affinity = 45,113,181,249)
Hello from rank 115, on nid02518. (core affinity = 47,115,183,251)
Hello from rank 116, on nid02518. (core affinity = 48,116,184,252)
Hello from rank 117, on nid02518. (core affinity = 49,117,185,253)
Hello from rank 118, on nid02518. (core affinity = 50,118,186,254)
Hello from rank 120, on nid02518. (core affinity = 52,120,188,256)
Hello from rank 122, on nid02518. (core affinity = 54,122,190,258)
Hello from rank 126, on nid02518. (core affinity = 58,126,194,262)
Hello from rank 128, on nid02518. (core affinity = 60,128,196,264)
Hello from rank 129, on nid02518. (core affinity = 61,129,197,265)
Hello from rank 131, on nid02518. (core affinity = 63,131,199,267)
Hello from rank 133, on nid02518. (core affinity = 65,133,201,269)
Hello from rank 134, on nid02518. (core affinity = 66,134,202,270)
Hello from rank 135, on nid02518. (core affinity = 67,135,203,271)
Hello from rank 5, on nid02517. (core affinity = 5,73,141,209)
Hello from rank 19, on nid02517. (core affinity = 19,87,155,223)
Hello from rank 20, on nid02517. (core affinity = 20,88,156,224)
Hello from rank 28, on nid02517. (core affinity = 28,96,164,232)
Hello from rank 30, on nid02517. (core affinity = 30,98,166,234)
Hello from rank 32, on nid02517. (core affinity = 32,100,168,236)
Hello from rank 36, on nid02517. (core affinity = 36,104,172,240)
Hello from rank 42, on nid02517. (core affinity = 42,110,178,246)
Hello from rank 43, on nid02517. (core affinity = 43,111,179,247)
Hello from rank 45, on nid02517. (core affinity = 45,113,181,249)
Hello from rank 46, on nid02517. (core affinity = 46,114,182,250)
Hello from rank 48, on nid02517. (core affinity = 48,116,184,252)
Hello from rank 49, on nid02517. (core affinity = 49,117,185,253)
Hello from rank 50, on nid02517. (core affinity = 50,118,186,254)
Hello from rank 53, on nid02517. (core affinity = 53,121,189,257)
Hello from rank 57, on nid02517. (core affinity = 57,125,193,261)
Hello from rank 58, on nid02517. (core affinity = 58,126,194,262)
Hello from rank 59, on nid02517. (core affinity = 59,127,195,263)
Hello from rank 62, on nid02517. (core affinity = 62,130,198,266)
Hello from rank 65, on nid02517. (core affinity = 65,133,201,269)
Hello from rank 66, on nid02517. (core affinity = 66,134,202,270)
Hello from rank 0, on nid02517. (core affinity = 0,68,136,204)
Hello from rank 1, on nid02517. (core affinity = 1,69,137,205)
Hello from rank 2, on nid02517. (core affinity = 2,70,138,206)
Hello from rank 3, on nid02517. (core affinity = 3,71,139,207)
Hello from rank 4, on nid02517. (core affinity = 4,72,140,208)
Hello from rank 6, on nid02517. (core affinity = 6,74,142,210)
Hello from rank 7, on nid02517. (core affinity = 7,75,143,211)
Hello from rank 8, on nid02517. (core affinity = 8,76,144,212)
Hello from rank 9, on nid02517. (core affinity = 9,77,145,213)
Hello from rank 10, on nid02517. (core affinity = 10,78,146,214)
Hello from rank 11, on nid02517. (core affinity = 11,79,147,215)
Hello from rank 12, on nid02517. (core affinity = 12,80,148,216)
Hello from rank 13, on nid02517. (core affinity = 13,81,149,217)
Hello from rank 14, on nid02517. (core affinity = 14,82,150,218)
Hello from rank 15, on nid02517. (core affinity = 15,83,151,219)
Hello from rank 16, on nid02517. (core affinity = 16,84,152,220)
Hello from rank 17, on nid02517. (core affinity = 17,85,153,221)
Hello from rank 18, on nid02517. (core affinity = 18,86,154,222)
Hello from rank 21, on nid02517. (core affinity = 21,89,157,225)
Hello from rank 22, on nid02517. (core affinity = 22,90,158,226)
Hello from rank 23, on nid02517. (core affinity = 23,91,159,227)
Hello from rank 24, on nid02517. (core affinity = 24,92,160,228)
Hello from rank 25, on nid02517. (core affinity = 25,93,161,229)
Hello from rank 26, on nid02517. (core affinity = 26,94,162,230)
Hello from rank 27, on nid02517. (core affinity = 27,95,163,231)
Hello from rank 29, on nid02517. (core affinity = 29,97,165,233)
Hello from rank 31, on nid02517. (core affinity = 31,99,167,235)
Hello from rank 33, on nid02517. (core affinity = 33,101,169,237)
Hello from rank 34, on nid02517. (core affinity = 34,102,170,238)
Hello from rank 35, on nid02517. (core affinity = 35,103,171,239)
Hello from rank 37, on nid02517. (core affinity = 37,105,173,241)
Hello from rank 38, on nid02517. (core affinity = 38,106,174,242)
Hello from rank 39, on nid02517. (core affinity = 39,107,175,243)
Hello from rank 40, on nid02517. (core affinity = 40,108,176,244)
Hello from rank 41, on nid02517. (core affinity = 41,109,177,245)
Hello from rank 44, on nid02517. (core affinity = 44,112,180,248)
Hello from rank 47, on nid02517. (core affinity = 47,115,183,251)
Hello from rank 51, on nid02517. (core affinity = 51,119,187,255)
Hello from rank 52, on nid02517. (core affinity = 52,120,188,256)
Hello from rank 54, on nid02517. (core affinity = 54,122,190,258)
Hello from rank 55, on nid02517. (core affinity = 55,123,191,259)
Hello from rank 56, on nid02517. (core affinity = 56,124,192,260)
Hello from rank 60, on nid02517. (core affinity = 60,128,196,264)
Hello from rank 61, on nid02517. (core affinity = 61,129,197,265)
Hello from rank 63, on nid02517. (core affinity = 63,131,199,267)
Hello from rank 64, on nid02517. (core affinity = 64,132,200,268)
Hello from rank 67, on nid02517. (core affinity = 67,135,203,271)
